test/waveform.vcd
$date
	Fri Apr 18 14:26:38 2025
$end
$version
	ModelSim Version 10.5b
$end
$timescale
	1ps
$end

$scope module Testbench $end
$var reg 1 ! clk $end
$var reg 4 " opcode [3:0] $end
$var reg 4 # operandA [3:0] $end
$var reg 4 $ operandB [3:0] $end
$var wire 1 % result [3] $end
$var wire 1 & result [2] $end
$var wire 1 ' result [1] $end
$var wire 1 ( result [0] $end
$var wire 1 ) mem_write $end
$var wire 1 * mem_read $end
$var reg 4 + memory_in [3:0] $end
$var wire 1 , memory_out [3] $end
$var wire 1 - memory_out [2] $end
$var wire 1 . memory_out [1] $end
$var wire 1 / memory_out [0] $end
$var integer 32 0 i $end
$var integer 32 1 j $end
$var integer 32 2 k $end

$scope module uut $end
$var wire 1 3 opcode [3] $end
$var wire 1 4 opcode [2] $end
$var wire 1 5 opcode [1] $end
$var wire 1 6 opcode [0] $end
$var wire 1 7 operandA [3] $end
$var wire 1 8 operandA [2] $end
$var wire 1 9 operandA [1] $end
$var wire 1 : operandA [0] $end
$var wire 1 ; operandB [3] $end
$var wire 1 < operandB [2] $end
$var wire 1 = operandB [1] $end
$var wire 1 > operandB [0] $end
$var reg 4 ? result [3:0] $end
$var reg 1 @ mem_write $end
$var reg 1 A mem_read $end
$var wire 1 B memory_in [3] $end
$var wire 1 C memory_in [2] $end
$var wire 1 D memory_in [1] $end
$var wire 1 E memory_in [0] $end
$var reg 4 F memory_out [3:0] $end
$upscope $end
$upscope $end
$enddefinitions $end
#0
$dumpvars
0!
b0 "
b0 #
b0 $
b0 +
b0 ?
0@
0A
b0 F
b0 0
b0 1
b0 2
0(
0'
0&
0%
0)
0*
0/
0.
0-
0,
0E
0D
0C
0B
0>
0=
0<
0;
0:
09
08
07
06
05
04
03
$end
#5
1!
#10
b1 2
b1 $
0!
1>
b1 ?
1(
#15
1!
#20
b10 2
b10 $
0!
0>
1=
b10 ?
0(
1'
#25
1!
#30
b11 2
b11 $
0!
1>
b11 ?
1(
#35
1!
#40
b100 2
b100 $
0!
0>
0=
1<
b100 ?
0(
0'
1&
#45
1!
#50
b101 2
b101 $
0!
1>
b101 ?
1(
#55
1!
#60
b110 2
b110 $
0!
0>
1=
b110 ?
0(
1'
#65
1!
#70
b111 2
b111 $
0!
1>
b111 ?
1(
#75
1!
#80
b1000 2
b1000 $
0!
0>
0=
0<
1;
b1000 ?
0(
0'
0&
1%
#85
1!
#90
b1001 2
b1001 $
0!
1>
b1001 ?
1(
#95
1!
#100
b1010 2
b1010 $
0!
0>
1=
b1010 ?
0(
1'
#105
1!
#110
b1011 2
b1011 $
0!
1>
b1011 ?
1(
#115
1!
#120
b1100 2
b1100 $
0!
0>
0=
1<
b1100 ?
0(
0'
1&
#125
1!
#130
b1101 2
b1101 $
0!
1>
b1101 ?
1(
#135
1!
#140
b1110 2
b1110 $
0!
0>
1=
b1110 ?
0(
1'
#145
1!
#150
b1111 2
b1111 $
0!
1>
b1111 ?
1(
#155
1!
#160
b10000 2
b1 1
b1 #
b0 2
b0 $
0!
0>
0=
0<
0;
1:
b1 ?
0'
0&
0%
#165
1!
#170
b1 2
b1 $
0!
1>
b10 ?
0(
1'
#175
1!
#180
b10 2
b10 $
0!
0>
1=
b11 ?
1(
#185
1!
#190
b11 2
b11 $
0!
1>
b100 ?
0(
0'
1&
#195
1!
#200
b100 2
b100 $
0!
0>
0=
1<
b101 ?
1(
#205
1!
#210
b101 2
b101 $
0!
1>
b110 ?
0(
1'
#215
1!
#220
b110 2
b110 $
0!
0>
1=
b111 ?
1(
#225
1!
#230
b111 2
b111 $
0!
1>
b1000 ?
0(
0'
0&
1%
#235
1!
#240
b1000 2
b1000 $
0!
0>
0=
0<
1;
b1001 ?
1(
#245
1!
#250
b1001 2
b1001 $
0!
1>
b1010 ?
0(
1'
#255
1!
#260
b1010 2
b1010 $
0!
0>
1=
b1011 ?
1(
#265
1!
#270
b1011 2
b1011 $
0!
1>
b1100 ?
0(
0'
1&
#275
1!
#280
b1100 2
b1100 $
0!
0>
0=
1<
b1101 ?
1(
#285
1!
#290
b1101 2
b1101 $
0!
1>
b1110 ?
0(
1'
#295
1!
#300
b1110 2
b1110 $
0!
0>
1=
b1111 ?
1(
#305
1!
#310
b1111 2
b1111 $
0!
1>
b0 ?
0(
0'
0&
0%
#315
1!
#320
b10000 2
b10 1
b10 #
b0 2
b0 $
0!
0>
0=
0<
0;
0:
19
b10 ?
1'
#325
1!
#330
b1 2
b1 $
0!
1>
b11 ?
1(
#335
1!
#340
b10 2
b10 $
0!
0>
1=
b100 ?
0(
0'
1&
#345
1!
#350
b11 2
b11 $
0!
1>
b101 ?
1(
#355
1!
#360
b100 2
b100 $
0!
0>
0=
1<
b110 ?
0(
1'
#365
1!
#370
b101 2
b101 $
0!
1>
b111 ?
1(
#375
1!
#380
b110 2
b110 $
0!
0>
1=
b1000 ?
0(
0'
0&
1%
#385
1!
#390
b111 2
b111 $
0!
1>
b1001 ?
1(
#395
1!
#400
b1000 2
b1000 $
0!
0>
0=
0<
1;
b1010 ?
0(
1'
#405
1!
#410
b1001 2
b1001 $
0!
1>
b1011 ?
1(
#415
1!
#420
b1010 2
b1010 $
0!
0>
1=
b1100 ?
0(
0'
1&
#425
1!
#430
b1011 2
b1011 $
0!
1>
b1101 ?
1(
#435
1!
#440
b1100 2
b1100 $
0!
0>
0=
1<
b1110 ?
0(
1'
#445
1!
#450
b1101 2
b1101 $
0!
1>
b1111 ?
1(
#455
1!
#460
b1110 2
b1110 $
0!
0>
1=
b0 ?
0(
0'
0&
0%
#465
1!
#470
b1111 2
b1111 $
0!
1>
b1 ?
1(
#475
1!
#480
b10000 2
b11 1
b11 #
b0 2
b0 $
0!
0>
0=
0<
0;
1:
b11 ?
1'
#485
1!
#490
b1 2
b1 $
0!
1>
b100 ?
0(
0'
1&
#495
1!
#500
b10 2
b10 $
0!
0>
1=
b101 ?
1(
#505
1!
#510
b11 2
b11 $
0!
1>
b110 ?
0(
1'
#515
1!
#520
b100 2
b100 $
0!
0>
0=
1<
b111 ?
1(
#525
1!
#530
b101 2
b101 $
0!
1>
b1000 ?
0(
0'
0&
1%
#535
1!
#540
b110 2
b110 $
0!
0>
1=
b1001 ?
1(
#545
1!
#550
b111 2
b111 $
0!
1>
b1010 ?
0(
1'
#555
1!
#560
b1000 2
b1000 $
0!
0>
0=
0<
1;
b1011 ?
1(
#565
1!
#570
b1001 2
b1001 $
0!
1>
b1100 ?
0(
0'
1&
#575
1!
#580
b1010 2
b1010 $
0!
0>
1=
b1101 ?
1(
#585
1!
#590
b1011 2
b1011 $
0!
1>
b1110 ?
0(
1'
#595
1!
#600
b1100 2
b1100 $
0!
0>
0=
1<
b1111 ?
1(
#605
1!
#610
b1101 2
b1101 $
0!
1>
b0 ?
0(
0'
0&
0%
#615
1!
#620
b1110 2
b1110 $
0!
0>
1=
b1 ?
1(
#625
1!
#630
b1111 2
b1111 $
0!
1>
b10 ?
0(
1'
#635
1!
#640
b10000 2
b100 1
b100 #
b0 2
b0 $
0!
0>
0=
0<
0;
0:
09
18
b100 ?
0'
1&
#645
1!
#650
b1 2
b1 $
0!
1>
b101 ?
1(
#655
1!
#660
b10 2
b10 $
0!
0>
1=
b110 ?
0(
1'
#665
1!
#670
b11 2
b11 $
0!
1>
b111 ?
1(
#675
1!
#680
b100 2
b100 $
0!
0>
0=
1<
b1000 ?
0(
0'
0&
1%
#685
1!
#690
b101 2
b101 $
0!
1>
b1001 ?
1(
#695
1!
#700
b110 2
b110 $
0!
0>
1=
b1010 ?
0(
1'
#705
1!
#710
b111 2
b111 $
0!
1>
b1011 ?
1(
#715
1!
#720
b1000 2
b1000 $
0!
0>
0=
0<
1;
b1100 ?
0(
0'
1&
#725
1!
#730
b1001 2
b1001 $
0!
1>
b1101 ?
1(
#735
1!
#740
b1010 2
b1010 $
0!
0>
1=
b1110 ?
0(
1'
#745
1!
#750
b1011 2
b1011 $
0!
1>
b1111 ?
1(
#755
1!
#760
b1100 2
b1100 $
0!
0>
0=
1<
b0 ?
0(
0'
0&
0%
#765
1!
#770
b1101 2
b1101 $
0!
1>
b1 ?
1(
#775
1!
#780
b1110 2
b1110 $
0!
0>
1=
b10 ?
0(
1'
#785
1!
#790
b1111 2
b1111 $
0!
1>
b11 ?
1(
#795
1!
#800
b10000 2
b101 1
b101 #
b0 2
b0 $
0!
0>
0=
0<
0;
1:
b101 ?
0'
1&
#805
1!
#810
b1 2
b1 $
0!
1>
b110 ?
0(
1'
#815
1!
#820
b10 2
b10 $
0!
0>
1=
b111 ?
1(
#825
1!
#830
b11 2
b11 $
0!
1>
b1000 ?
0(
0'
0&
1%
#835
1!
#840
b100 2
b100 $
0!
0>
0=
1<
b1001 ?
1(
#845
1!
#850
b101 2
b101 $
0!
1>
b1010 ?
0(
1'
#855
1!
#860
b110 2
b110 $
0!
0>
1=
b1011 ?
1(
#865
1!
#870
b111 2
b111 $
0!
1>
b1100 ?
0(
0'
1&
#875
1!
#880
b1000 2
b1000 $
0!
0>
0=
0<
1;
b1101 ?
1(
#885
1!
#890
b1001 2
b1001 $
0!
1>
b1110 ?
0(
1'
#895
1!
#900
b1010 2
b1010 $
0!
0>
1=
b1111 ?
1(
#905
1!
#910
b1011 2
b1011 $
0!
1>
b0 ?
0(
0'
0&
0%
#915
1!
#920
b1100 2
b1100 $
0!
0>
0=
1<
b1 ?
1(
#925
1!
#930
b1101 2
b1101 $
0!
1>
b10 ?
0(
1'
#935
1!
#940
b1110 2
b1110 $
0!
0>
1=
b11 ?
1(
#945
1!
#950
b1111 2
b1111 $
0!
1>
b100 ?
0(
0'
1&
#955
1!
#960
b10000 2
b110 1
b110 #
b0 2
b0 $
0!
0>
0=
0<
0;
0:
19
b110 ?
1'
#965
1!
#970
b1 2
b1 $
0!
1>
b111 ?
1(
#975
1!
#980
b10 2
b10 $
0!
0>
1=
b1000 ?
0(
0'
0&
1%
#985
1!
#990
b11 2
b11 $
0!
1>
b1001 ?
1(
#995
1!
#1000
b100 2
b100 $
0!
0>
0=
1<
b1010 ?
0(
1'
